{
    "name": "Item",
    "alias": "item",
    "description": "",
    "keywords": [],
    "priority": 0,
    "providers": [
        "App\\Modules\\Item\\Providers\\ItemServiceProvider"
    ],
    "aliases": {},
    "files": [],
    "requires": []
}
